<svg width="42" height="42" viewBox="0 0 42 42" version="1.1" xmlns="http://www.w3.org/2000/svg" xmlns:xlink="http://www.w3.org/1999/xlink">
<title>Shape</title>
<desc>Created using Figma</desc>
<g id="Canvas" transform="translate(-1915 -3633)">
<g id="Shape">
<use xlink:href="#path0_fill" transform="translate(1915.35 3633.94)" fill="#000000"/>
</g>
</g>
<defs>
<path id="path0_fill" fill-rule="evenodd" d="M 0 20.3474C 0 9.11011 9.11768 0 20.3645 0C 31.6112 0 40.729 9.11011 40.729 20.3474C 40.729 31.585 31.6112 40.6951 20.3645 40.6951C 9.11768 40.6951 0 31.585 0 20.3474ZM 19.8037 24.1362C 20.1987 24.9016 21.3478 25.5754 22.569 25.5754C 26.2068 25.5754 28.6746 22.1926 28.6731 17.6619C 28.6731 14.2388 25.8298 11.0496 21.51 11.0496C 16.1343 11.0496 13.4231 14.9817 13.4231 18.2607C 13.4231 20.2449 14.1591 22.0112 15.7407 22.6702C 15.999 22.7781 16.2319 22.6746 16.307 22.3818L 16.4098 21.9675C 16.4576 21.7739 16.5076 21.5713 16.5367 21.4561C 16.6134 21.1663 16.5834 21.0642 16.3746 20.812C 15.918 20.2642 15.6281 19.5544 15.6281 18.5488C 15.6281 15.6328 17.767 13.0215 21.1991 13.0215C 24.2375 13.0215 25.908 14.9141 25.908 17.4443C 25.908 20.7715 24.4629 23.5811 22.3196 23.5811C 21.136 23.5811 20.2498 22.583 20.5337 21.3584C 20.6566 20.8289 20.8217 20.2839 20.9821 19.7542C 21.2644 18.8215 21.5325 17.9355 21.5325 17.2627C 21.5325 16.3188 21.0353 15.5293 20.0065 15.5293C 18.7959 15.5293 17.824 16.8064 17.824 18.5173C 17.824 19.6069 18.186 20.3438 18.186 20.3438L 17.2832 24.2476L 16.7305 26.6335C 16.5338 27.4875 16.5052 28.4255 16.5322 29.2178C 16.6149 29.9292 17.3043 30.5085 17.9021 29.728C 18.3212 29.0422 18.7733 28.1763 19.0076 27.3088C 19.1473 26.7957 19.8037 24.1362 19.8037 24.1362Z"/>
</defs>
</svg>
